[
    {
        "id": "1",
        "options": [
            {
                "id": "1",
                "answers": [
                    {
                        "title": "yes",
                        "correct": false
                    },
                    {
                        "title": "no",
                        "correct": true
                    },
                    {
                        "title": "doesn't matter",
                        "correct": false
                    }
                ]
            }
        ]
    }
]