[
  {"title": "Javascript", "slug": "javascript", "image": "https://placehold.co/300x150/000000/FFF"},
  {"title": "Medicine", "slug": "medicine", "image": "https://placehold.co/300x150/DD0000/FFF"},
  {"title": "Biology", "slug": "biology", "image": "https://placehold.co/300x150/00AA00/FFF"}
]
